{"frames": {

"sprites/decals/dunes/dune08.png":
{
	"frame": {"x":2,"y":2,"w":460,"h":284},
	"rotated": false,
	"trimmed": false,
	"spriteSourceSize": {"x":0,"y":0,"w":460,"h":284},
	"sourceSize": {"w":460,"h":284}
},
"sprites/forest/desertforest/DForestHuge_1.png":
{
	"frame": {"x":464,"y":2,"w":496,"h":282},
	"rotated": false,
	"trimmed": false,
	"spriteSourceSize": {"x":0,"y":0,"w":496,"h":282},
	"sourceSize": {"w":496,"h":282}
},
"sprites/terrain/green_tiles/green019a.png":
{
	"frame": {"x":2,"y":288,"w":384,"h":192},
	"rotated": false,
	"trimmed": false,
	"spriteSourceSize": {"x":0,"y":0,"w":384,"h":192},
	"sourceSize": {"w":384,"h":192}
},
"sprites/terrain/green_tiles/green020.png":
{
	"frame": {"x":388,"y":288,"w":384,"h":192},
	"rotated": false,
	"trimmed": false,
	"spriteSourceSize": {"x":0,"y":0,"w":384,"h":192},
	"sourceSize": {"w":384,"h":192}
},
"sprites/terrain/rocky_desert/rock016a.png":
{
	"frame": {"x":774,"y":286,"w":128,"h":64},
	"rotated": false,
	"trimmed": false,
	"spriteSourceSize": {"x":0,"y":0,"w":128,"h":64},
	"sourceSize": {"w":128,"h":64}
},
"sprites/terrain/rocky_desert/rock017.png":
{
	"frame": {"x":774,"y":352,"w":128,"h":64},
	"rotated": false,
	"trimmed": false,
	"spriteSourceSize": {"x":0,"y":0,"w":128,"h":64},
	"sourceSize": {"w":128,"h":64}
},
"sprites/terrain/rocky_desert/rock017a.png":
{
	"frame": {"x":774,"y":418,"w":128,"h":64},
	"rotated": false,
	"trimmed": false,
	"spriteSourceSize": {"x":0,"y":0,"w":128,"h":64},
	"sourceSize": {"w":128,"h":64}
}},
"meta": {
	"app": "http://www.codeandweb.com/texturepacker ",
	"version": "1.0",
	"image": "amjad14.png",
	"format": "RGBA8888",
	"size": {"w":1024,"h":512},
	"scale": "1",
	"smartupdate": "$TexturePacker:SmartUpdate:4352ceebf2e8273eb09afcdc3b22fd85:890172c030d80f39ca457a47d850cf2d:193a970bfffea4f9698783c8cc112b3b$"
}
}
