{"frames": {

"sprites/decals/Oases/oasis03_smaller_a.png":
{
	"frame": {"x":518,"y":2,"w":503,"h":275},
	"rotated": false,
	"trimmed": true,
	"spriteSourceSize": {"x":24,"y":0,"w":503,"h":275},
	"sourceSize": {"w":527,"h":275}
},
"sprites/mountains/sandstone_new/sandstone01.png":
{
	"frame": {"x":2,"y":2,"w":514,"h":309},
	"rotated": false,
	"trimmed": true,
	"spriteSourceSize": {"x":0,"y":2,"w":514,"h":309},
	"sourceSize": {"w":514,"h":311}
},
"sprites/mountains/sandstone_new/sandstone08.png":
{
	"frame": {"x":2,"y":313,"w":353,"h":194},
	"rotated": false,
	"trimmed": false,
	"spriteSourceSize": {"x":0,"y":0,"w":353,"h":194},
	"sourceSize": {"w":353,"h":194}
},
"sprites/terrain/sand/sand04.png":
{
	"frame": {"x":743,"y":279,"w":128,"h":64},
	"rotated": false,
	"trimmed": false,
	"spriteSourceSize": {"x":0,"y":0,"w":128,"h":64},
	"sourceSize": {"w":128,"h":64}
},
"sprites/terrain/sand/sand3x3.png":
{
	"frame": {"x":357,"y":313,"w":384,"h":192},
	"rotated": false,
	"trimmed": false,
	"spriteSourceSize": {"x":0,"y":0,"w":384,"h":192},
	"sourceSize": {"w":384,"h":192}
},
"sprites/terrain/water/shoresm/shoresm01.png":
{
	"frame": {"x":873,"y":279,"w":128,"h":64},
	"rotated": false,
	"trimmed": false,
	"spriteSourceSize": {"x":0,"y":0,"w":128,"h":64},
	"sourceSize": {"w":128,"h":64}
},
"sprites/terrain/water/shoresm/shoresm010.png":
{
	"frame": {"x":743,"y":345,"w":128,"h":64},
	"rotated": false,
	"trimmed": false,
	"spriteSourceSize": {"x":0,"y":0,"w":128,"h":64},
	"sourceSize": {"w":128,"h":64}
},
"sprites/terrain/water/shoresm/shoresm011.png":
{
	"frame": {"x":873,"y":345,"w":128,"h":64},
	"rotated": false,
	"trimmed": false,
	"spriteSourceSize": {"x":0,"y":0,"w":128,"h":64},
	"sourceSize": {"w":128,"h":64}
},
"sprites/terrain/water/shoresm/shoresm012.png":
{
	"frame": {"x":743,"y":411,"w":128,"h":64},
	"rotated": false,
	"trimmed": false,
	"spriteSourceSize": {"x":0,"y":0,"w":128,"h":64},
	"sourceSize": {"w":128,"h":64}
},
"sprites/terrain/water/shoresm/shoresm013.png":
{
	"frame": {"x":873,"y":411,"w":128,"h":64},
	"rotated": false,
	"trimmed": false,
	"spriteSourceSize": {"x":0,"y":0,"w":128,"h":64},
	"sourceSize": {"w":128,"h":64}
}},
"meta": {
	"app": "http://www.codeandweb.com/texturepacker ",
	"version": "1.0",
	"image": "amjad10.png",
	"format": "RGBA8888",
	"size": {"w":1024,"h":512},
	"scale": "1",
	"smartupdate": "$TexturePacker:SmartUpdate:4352ceebf2e8273eb09afcdc3b22fd85:890172c030d80f39ca457a47d850cf2d:193a970bfffea4f9698783c8cc112b3b$"
}
}
